{
    "type": "FeatureCollection",
    "features": [
        {
            "type": "Feature",
            "properties": {
                "id_osm": 3249480767,
                "image": "File:Divonne water fountain at Esplanade du lac.jpg",
                "im": "fn"
            },
            "geometry": {
                "type": "Point",
                "coordinates": [6.1482524, 46.3542923]
            }
        },
        {
            "type": "Feature",
            "properties": {
                "name": "Eau minérale Mélodie",
                "id_osm": 7041403159,
                "image": "File:Eau min%C3%A9rale M%C3%A9lodie.jpg",
                "im": "fn"
            },
            "geometry": {
                "type": "Point",
                "coordinates": [6.1281257, 46.3431274]
            }
        }
    ]
}
